%YAML 1.1
%TAG !u! tag:unity3d.com,2011:
--- !u!114 &11400000
MonoBehaviour:
  m_ObjectHideFlags: 0
  m_CorrespondingSourceObject: {fileID: 0}
  m_PrefabInstance: {fileID: 0}
  m_PrefabAsset: {fileID: 0}
  m_GameObject: {fileID: 0}
  m_Enabled: 1
  m_EditorHideFlags: 0
  m_Script: {fileID: 11500000, guid: 3db2c50fb9786e64896edf8717e5f05d, type: 3}
  m_Name: ShieldSkillStat
  m_EditorClassIdentifier: 
  statType: 4
  id: 6
  nameUnique: ShieldSkillStat
  nameToShow: Shield Skill
  lmsType: 1
